module github.com/tharsis/ethermint

go 1.17

require (
	github.com/btcsuite/btcd v0.22.0-beta
	github.com/btcsuite/btcutil v1.0.3-0.20201208143702-a53e38424cce
	github.com/cosmos/cosmos-sdk v0.44.3
	github.com/cosmos/go-bip39 v1.0.0
	github.com/cosmos/ibc-go/v2 v2.0.0
	github.com/davecgh/go-spew v1.1.1
	github.com/ethereum/go-ethereum v1.10.11
	github.com/gogo/protobuf v1.3.3
	github.com/golang/protobuf v1.5.2
	github.com/gorilla/mux v1.8.0
	github.com/gorilla/websocket v1.4.2
	github.com/grpc-ecosystem/grpc-gateway v1.16.0
	github.com/holiman/uint256 v1.2.0
	github.com/improbable-eng/grpc-web v0.15.0
	github.com/klauspost/compress v1.11.9 // indirect
	github.com/miguelmota/go-ethereum-hdwallet v0.1.1
	github.com/palantir/stacktrace v0.0.0-20161112013806-78658fd2d177
	github.com/pkg/errors v0.9.1
	github.com/rakyll/statik v0.1.7
	github.com/rcrowley/go-metrics v0.0.0-20201227073835-cf1acfcdf475 // indirect
	github.com/regen-network/cosmos-proto v0.3.1
	github.com/rs/cors v1.8.0
	github.com/rs/zerolog v1.26.0
	github.com/spf13/cast v1.4.1
	github.com/spf13/cobra v1.2.1
	github.com/spf13/viper v1.9.0
	github.com/status-im/keycard-go v0.0.0-20200402102358-957c09536969
	github.com/stretchr/testify v1.7.0
	github.com/tendermint/tendermint v0.34.14
	github.com/tendermint/tm-db v0.6.4
	github.com/tyler-smith/go-bip39 v1.1.0
	go.etcd.io/bbolt v1.3.6 // indirect
	golang.org/x/crypto v0.0.0-20211108221036-ceb1ce70b4fa // indirect
	google.golang.org/genproto v0.0.0-20211104193956-4c6863e31247
	google.golang.org/grpc v1.41.0
	google.golang.org/protobuf v1.27.1
	gopkg.in/yaml.v2 v2.4.0
)

require (
	filippo.io/edwards25519 v1.0.0-beta.2 // indirect
	github.com/99designs/keyring v1.1.6 // indirect
	github.com/ChainSafe/go-schnorrkel v0.0.0-20200405005733-88cbf1b4c40d // indirect
	github.com/DataDog/zstd v1.4.8 // indirect
	github.com/StackExchange/wmi v1.2.1 // indirect
	github.com/VictoriaMetrics/fastcache v1.6.0 // indirect
	github.com/Workiva/go-datastructures v1.0.52 // indirect
	github.com/armon/go-metrics v0.3.9 // indirect
	github.com/beorn7/perks v1.0.1 // indirect
	github.com/bgentry/speakeasy v0.1.0 // indirect
	github.com/cenkalti/backoff/v4 v4.1.1 // indirect
	github.com/cespare/xxhash v1.1.0 // indirect
	github.com/cespare/xxhash/v2 v2.1.1 // indirect
	github.com/coinbase/rosetta-sdk-go v0.6.10 // indirect
	github.com/confio/ics23/go v0.6.6 // indirect
	github.com/cosmos/iavl v0.17.1 // indirect
	github.com/cosmos/ledger-cosmos-go v0.11.1 // indirect
	github.com/cosmos/ledger-go v0.9.2 // indirect
	github.com/danieljoos/wincred v1.0.2 // indirect
	github.com/deckarep/golang-set v0.0.0-20180603214616-504e848d77ea // indirect
	github.com/desertbit/timer v0.0.0-20180107155436-c41aec40b27f // indirect
	github.com/dgraph-io/badger/v2 v2.2007.2 // indirect
	github.com/dgraph-io/ristretto v0.0.3 // indirect
	github.com/dgryski/go-farm v0.0.0-20200201041132-a6ae2369ad13 // indirect
	github.com/dustin/go-humanize v1.0.0 // indirect
	github.com/dvsekhvalnov/jose2go v0.0.0-20200901110807-248326c1351b // indirect
	github.com/edsrzf/mmap-go v1.0.0 // indirect
	github.com/enigmampc/btcutil v1.0.3-0.20200723161021-e2fb6adb2a25 // indirect
	github.com/felixge/httpsnoop v1.0.1 // indirect
	github.com/fsnotify/fsnotify v1.5.1 // indirect
	github.com/gballet/go-libpcsclite v0.0.0-20190607065134-2772fd86a8ff // indirect
	github.com/go-kit/kit v0.10.0 // indirect
	github.com/go-logfmt/logfmt v0.5.0 // indirect
	github.com/go-ole/go-ole v1.2.5 // indirect
	github.com/go-stack/stack v1.8.0 // indirect
	github.com/godbus/dbus v0.0.0-20190726142602-4481cbc300e2 // indirect
	github.com/gogo/gateway v1.1.0 // indirect
	github.com/golang/snappy v0.0.4 // indirect
	github.com/google/btree v1.0.1 // indirect
	github.com/google/orderedcode v0.0.1 // indirect
	github.com/google/uuid v1.3.0 // indirect
	github.com/gorilla/handlers v1.5.1 // indirect
	github.com/grpc-ecosystem/go-grpc-middleware v1.3.0 // indirect
	github.com/gsterjov/go-libsecret v0.0.0-20161001094733-a6f4afe4910c // indirect
	github.com/gtank/merlin v0.1.1 // indirect
	github.com/gtank/ristretto255 v0.1.2 // indirect
	github.com/hashicorp/go-immutable-radix v1.0.0 // indirect
	github.com/hashicorp/golang-lru v0.5.5-0.20210104140557-80c98217689d // indirect
	github.com/hashicorp/hcl v1.0.0 // indirect
	github.com/hdevalence/ed25519consensus v0.0.0-20210204194344-59a8610d2b87 // indirect
	github.com/holiman/bloomfilter/v2 v2.0.3 // indirect
	github.com/huin/goupnp v1.0.2 // indirect
	github.com/inconshreveable/mousetrap v1.0.0 // indirect
	github.com/jackpal/go-nat-pmp v1.0.2-0.20160603034137-1fa385a6f458 // indirect
	github.com/jmhodges/levigo v1.0.0 // indirect
	github.com/keybase/go-keychain v0.0.0-20190712205309-48d3d31d256d // indirect
	github.com/lib/pq v1.10.2 // indirect
	github.com/libp2p/go-buffer-pool v0.0.2 // indirect
	github.com/magiconair/properties v1.8.5 // indirect
	github.com/mattn/go-isatty v0.0.14 // indirect
	github.com/mattn/go-runewidth v0.0.9 // indirect
	github.com/matttproud/golang_protobuf_extensions v1.0.1 // indirect
	github.com/mimoo/StrobeGo v0.0.0-20181016162300-f8f6d4d2b643 // indirect
	github.com/minio/highwayhash v1.0.1 // indirect
	github.com/mitchellh/mapstructure v1.4.2 // indirect
	github.com/mtibben/percent v0.2.1 // indirect
	github.com/olekukonko/tablewriter v0.0.5 // indirect
	github.com/pelletier/go-toml v1.9.4 // indirect
	github.com/petermattis/goid v0.0.0-20180202154549-b0b1615b78e5 // indirect
	github.com/pmezard/go-difflib v1.0.0 // indirect
	github.com/prometheus/client_golang v1.11.0 // indirect
	github.com/prometheus/client_model v0.2.0 // indirect
	github.com/prometheus/common v0.29.0 // indirect
	github.com/prometheus/procfs v0.6.0 // indirect
	github.com/prometheus/tsdb v0.7.1 // indirect
	github.com/rjeczalik/notify v0.9.1 // indirect
	github.com/sasha-s/go-deadlock v0.2.1-0.20190427202633-1595213edefa // indirect
	github.com/shirou/gopsutil v3.21.4-0.20210419000835-c7a38de76ee5+incompatible // indirect
	github.com/spf13/afero v1.6.0 // indirect
	github.com/spf13/jwalterweatherman v1.1.0 // indirect
	github.com/spf13/pflag v1.0.5 // indirect
	github.com/subosito/gotenv v1.2.0 // indirect
	github.com/syndtr/goleveldb v1.0.1-0.20210819022825-2ae1ddf74ef7 // indirect
	github.com/tecbot/gorocksdb v0.0.0-20191217155057-f0fad39f321c // indirect
	github.com/tendermint/btcd v0.1.1 // indirect
	github.com/tendermint/crypto v0.0.0-20191022145703-50d29ede1e15 // indirect
	github.com/tendermint/go-amino v0.16.0 // indirect
	github.com/tklauser/go-sysconf v0.3.7 // indirect
	github.com/tklauser/numcpus v0.2.3 // indirect
	github.com/zondax/hid v0.9.0 // indirect
	golang.org/x/net v0.0.0-20210903162142-ad29c8ab022f // indirect
	golang.org/x/sync v0.0.0-20210220032951-036812b2e83c // indirect
	golang.org/x/sys v0.0.0-20211025112917-711f33c9992c // indirect
	golang.org/x/term v0.0.0-20201126162022-7de9c90e9dd1 // indirect
	golang.org/x/text v0.3.7 // indirect
	gopkg.in/ini.v1 v1.63.2 // indirect
	gopkg.in/natefinch/npipe.v2 v2.0.0-20160621034901-c1b8fa8bdcce // indirect
	gopkg.in/olebedev/go-duktape.v3 v3.0.0-20200619000410-60c24ae608a6 // indirect
	gopkg.in/yaml.v3 v3.0.0-20210107192922-496545a6307b // indirect
	nhooyr.io/websocket v1.8.6 // indirect
)

replace google.golang.org/grpc => google.golang.org/grpc v1.33.2

replace github.com/gogo/protobuf => github.com/regen-network/protobuf v1.3.3-alpha.regen.1

replace github.com/99designs/keyring => github.com/cosmos/keyring v1.1.7-0.20210622111912-ef00f8ac3d76

replace github.com/cosmos/iavl => github.com/cosmos/iavl v0.17.1
